{
    "menu": [{
        "no": 1,
        "item": "Menu 1A",
        "description": "Soup of the Day, Grilled Rump Steak (50z), Chips, and Tomato, Roll and Butter, Ice Cream.",
        "price": 12.5
    }, {
        "no": 2,
        "item": "Menu 2A",
        "description": "Prawn cocktail, Grilled Rump Steak (8 oz.), Chips and Tomato, Roll and Butter, Peach Melba, and Coffee.",
        "price": 16.5
    }, {
        "no": 3,
        "item": "Menu 3A",
        "description": "Egg Mayonaise, Roast Beef, Roast Potatoes, Yorkshire pudding, and Freshly Cooked Vegetables, Roll and Butter, Apple Pie and Custard, Coffee",
        "price": 12.5
    }, {
        "no": 4,
        "item": "Menu 4A",
        "description": "Soup of the Day, Roast Lamb, Mint Sauce, Roast Potatoes, and Freshly Cooked Vegetables, Roll and Butter, Fruit Cocktail and Ice Cream, Cheese and Biscuits, and Coffee",
        "price": 13.5
    }, {
        "no": 5,
        "item": "Menu 5A",
        "description": "Scampi Starter, Grilled Pork Chop, Chips and Side Salad, Roll and Butter, Fresh Cream Trifle, Cheese and Biscuits, and Coffee",
        "price": 13.5
    }, {
        "no": 6,
        "item": "Menu 6A",
        "description": "Soup of the Day, Home Made Steak Pie, and Freshly Cooked Vegetables, Fresh Cream Strawberry Gateau, Roll and Butter and Coffee",
        "price": 11
    }, {
        "no": 7,
        "item": "Menu 7A",
        "description": "Fresh Melon starter, Cold Roast Beef Salad with Hot Boiled potatoes, Roll and Butter, Peach Melba, Cheese and Biscuits and Coffee",
        "price": 13.5
    }]
}