{
    "menu": [{
        "no": 1,
        "item": "Menu 1",
        "description": "Fruit Juice, Fillet of Cod, Chips and Tomato, Roll and Butter, Ice Cream",
        "price": 9.2
    }, {
        "no": 2,
        "item": "Menu 2",
        "description": "Fruit Juice, Beefburger, Chips and Tomato, Roll and Butter, Ice Cream",
        "price": 7.95
    }, {
        "no": 3,
        "item": "Menu 3",
        "description": "Fruit Juice, Steak Pie and Vegetables, Roll and Butter, Ice Cream",
        "price": 9.8
    }, {
        "no": 4,
        "item": "Menu 4",
        "description": "Fruit Juice, Ham, Egg, Chips and Tomato, Roll and Butter, Ice Cream",
        "price": 7.95
    }, {
        "no": 5,
        "item": "Menu 5",
        "description": "Fruit Juice, Fried Fillet of Plaice, Chips and Tomato, Roll and Butter, Fruit Cocktail, Ice Cream",
        "price": 9.5
    }, {
        "no": 6,
        "item": "Menu 6",
        "description": "Fruit Juice, Grilled Gammon Steak, Pineapple, Chips and Tomato Roll and Butter, Peach Melba",
        "price": 9.5
    }, {
        "no": 7,
        "item": "Menu 7",
        "description": "Fruit Juice, Roast Beef, Yorkshire Pudding, Roast Potatoes and Vegetables, Roll and Butter, Apple pie and Custard",
        "price": 11.5
    }, {
        "no": 8,
        "item": "Menu 8",
        "description": "Fruit Juice, Roast Chicken, Roast Potatoes, and Vegetables, Roll and Butter, Apple Pie and Custard",
        "price": 11.5
    }]
}