{
    "menu": 
    [
      {
        "no": 1,
        "item": "Gadds No 3 500ml Pale Ale: fresh, clean, bitter",
        "price": 4.35,
        "group": 1
      },
      {
        "no": 2,
        "item": "Gadds No 5 500ml Bitter: full bodied, lingering bitter finish",
        "price": 4.35,
        "group": 1
      },
      {
        "no": 3,
        "item": "Black Pearl 330ml Luscious Black Stout",
        "price": 3.7,
        "group": 1
      },
      {
        "no": 4,
        "item": "Pilsner 330ml fresh, citrussy flavour",
        "price": 3.7,
        "group": 2
      },
      {
        "no": 5,
        "item": "Bishop's Finger 500ml Rich, fruity, bitter",
        "price": 4.35,
        "group": 3
      },
      {
        "no": 6,
        "item": "Spitfire 500ml Awesome, hardcore",
        "price": 4.35,
        "group": 3
      },
      {
        "no": 7,
        "item": "500 ml bottle",
        "price": 4.35,
        "group": 4
      },
      {
        "no": 8,
        "item": "WHITE: CANTEBURY CHOICE Dry Reserve 175ml",
        "price": 4.3,
        "group": 5
      },
      {
        "no": 9,
        "item": "RED: CANTERBURY CHOICE Red Reserve 175ml",
        "price": 4.3,
        "group": 5
      },
      {
        "no": 10,
        "item": "Baby Mixes",
        "price": 1.4,
        "group": 6
      },
      {
        "no": 11,
        "item": "Bells Whisky 25ml",
        "price": 2.2,
        "group": 6
      },
      {
        "no": 12,
        "item": "Courvoisier Brandy 25ml",
        "price": 2.5,
        "group": 6
      },
      {
        "no": 13,
        "item": "Jack Daniels 25ml",
        "price": 2.7,
        "group": 6
      },
      {
        "no": 14,
        "item": "Bacardi 25ml",
        "price": 2.2,
        "group": 6
      },
      {
        "no": 15,
        "item": "Vodka 25ml",
        "price": 2.2,
        "group": 6
      },
      {
        "no": 16,
        "item": "Gin 25ml",
        "price": 2.2,
        "group": 6
      },
      {
        "no": 17,
        "item": "Irish Coffee",
        "price": 3.2,
        "group": 6
      },
      {
        "no": 19,
        "item": "Shandy half pint",
        "price": 1.75,
        "group": 6
      },
      {
        "no": 20,
        "item": "Fosters half pint",
        "price": 1.75,
        "group": 6
      },
      {
        "no": 21,
        "item": "Carlsberg half pint",
        "price": 1.75,
        "group": 6
      }
    ]
}