{
  "ales" :
  [
    {
      "item":"header RAMSGATE BREWERY",
      "price":""
    },  
    {
      "item":"Gadds No 3 500ml Pale Ale: fresh, clean, bitter",
      "price":"£4.20"
    },
    {
      "item":"Gadds No 5 500ml Bitter: full bodied, lingering bitter finish",
      "price":"£4.20"
    },
    {
      "item":"Black Pearl 330ml Luscious Black Stout",
      "price":"£3.60"
    },
    {
      "item":"na",
      "price":""
    },
    {
      "item":"header WHITSTABLE BREWERY",
      "price":""
    },
    {
      "item":"Pilsner 330ml fresh, citrussy flavour",
      "price":"£3.60"
    },
    {
      "item":"na",
      "price":""
    },
    {
      "item":"header SHEPHERD NEAME",
      "price":""
    },
    {
      "item":"Bishop’s Finger 500ml Rich, fruity, bitter",
      "price":"£4.20"
    },
    {
      "item":"Spitfire 500ml Awesome, hardcore",
      "price":"£4.20"
    },
    {
      "item":"na",
      "price":""
    },
    {
      "item":"header PINE TREES FARM",
      "price":""
    },
    {
      "item":"DUDDA’S TUN CIDER: KATY clean, crisp tasting farm-made cider using 100% apple juice grown at Pine Trees Farm",
      "price":""
    },
    {
      "item":"1/2 Pint",
      "price":"£2.50"
    },
    {
      "item":"1 Pint",
      "price":"£3.95"
    },
    {
      "item":"na",
      "price":""
    },
    {
      "item":"header BARNSOLE VINEYARD",
      "price":""
    },
    {
      "item":"WHITE: CANTEBURY CHOICE Dry Reserve 175ml",
      "price":"£3.95"
    },
    {
      "item":"RED: CANTERBURY CHOICE Red Reserve 175ml",
      "price":"£3.95"
    },
    {
      "item":"na",
      "price":""
    },
    {
      "item":"header OTHERS",
      "price":""
    },
    {
      "item":"Baby Mixes",
      "price":"£1.40"
    },
    {
      "item":"Bells Whisky 25ml",
      "price":"£2.20"
    },
    {
      "item":"Courvoisier Brandy 25ml",
      "price":"£2.50"
    },
    {
      "item":"Jack Daniels 25ml",
      "price":"£2.70"
    },
    {
      "item":"Bacardi 25ml",
      "price":"£2.20"
    },
    {
      "item":"Vodka 25ml",
      "price":"£2.20"
    },
    {
      "item":"Gin 25ml",
      "price":"£2.20"
    },
    {
      "item":"Irish Coffee",
      "price":"£3.10"
    },
    {
      "item":"Harveys Bristol Cream 25ml",
      "price":"£1.80"
    },
    {
      "item":"Shandy half pint",
      "price":"£1.75"
    },
    {
      "item":"Fosters half pint",
      "price":"£1.75"
    },
    {
      "item":"Carlsberg half pint",
      "price":"£1.75"
    },
    {
      "item":"Newcastle Brown Ale per bottle",
      "price":"£3.95"
    }
  ]
}