{ "main" :
  [
    {
      "item":"Home Made Soup Of The Day Served With Freshly-Cut Bread",
      "price":"£3.10"
    },
    {
      "item":"Roast Beef, Roast Pots, Yorkshire Pud, Veg",
      "price":"£6.80"
    },
    {
      "item":"Roast Chicken, Roast Pots and Vegetables",
      "price":"£6.80"
    },
    {
      "item":"Home Made Shepherd’s Pie",
      "price":"£5.95"
    },
    {
      "item":"Home Made Steak Pie, Boiled Pots & Veg",
      "price":"£6.80"
    },
    {
      "item":"Home Made Steak Pie, Chips and Peas",
      "price":"£6.80"
    },
    {
      "item":"Steak and Kidney Pudding, Boiled Pots,Veg",
      "price":"£6.20"
    },
    {
      "item":"na",
      "price":""
    },
    {
      "item":"Fried Fillet of Cod, Chips and Peas",
      "price":"£6.95"
    },
    {
      "item":"Fried Fillet of Plaice, Chips and Peas",
      "price":"£6.95"
    },
    {
      "item":"Deep Fried Scampi, Chips & Peas",
      "price":"£6.95"
    },
    {
      "item":"na",
      "price":""
    },
    {
      "item":"Grilled Rump Steak, Chips and Peas",
      "price":"£11.50"
    },
    {
      "item":"Pork Chop, Chips and Peas",
      "price":"£6.95"
    },
    {
      "item":"Lamb Chops, Chips and Peas",
      "price":"£6.95"
    },
    {
      "item":"Grilled Gammon Steak, Chips and Peas",
      "price":"£6.50"
    },
    {
      "item":"na",
      "price":""
    },
    {
      "item":"Hamburger Steak, Chips and Peas",
      "price":"£4.45"
    },
    {
      "item":"Quarter Pounder and Chips",
      "price":"£4.45"
    },
    {
      "item":"Quarter Pounder",
      "price":"£3.40"
    },
    {
      "item":"na",
      "price":""
    },
    {
      "item":"Egg Bacon Chips and Peas",
      "price":"£4.95"
    },
    {
      "item":"Egg Sausage Chips and Peas",
      "price":"£4.40"
    },
    {
      "item":"Double Egg and Chips and Peas",
      "price":"£3.95"
    },
    {
      "item":"Ham Egg Chips and Peas",
      "price":"£4.95"
    },
    {
      "item":"Ham Chips and Peas",
      "price":"£4.30"
    },
    {
      "item":"Double Sausage Chips and Peas",
      "price":"£4.40"
    },
    {
      "item":"na",
      "price":""
    },
    {
      "item":"Jacket Potato with Beans or Coleslaw",
      "price":"£3.85"
    },
    {
      "item":"Jacket Potato with Cheese",
      "price":"£3.85"
    },
    {
      "item":"Jacket Potato with Egg Mayonnaise",
      "price":"£3.85"
    },
    {
      "item":"Jacket Potato with Tuna Fish Mayonnaise",
      "price":"£4.50"
    },
    {
      "item":"Jacket Potato with Prawns",
      "price":"£5.30"
    },
    {
      "item":"na",
      "price":""
    },
    {
      "item":"Chips Per Portion – Small (gravy 20p extra)",
      "price":"£1.45"
    },
    {
      "item":"Chips Per portion – Large (gravy 20p extra)",
      "price":"£2.10"
    },
    {
      "item":"Extra Vegetables per portion",
      "price":"£0.90"
    },
    {
      "item":"Mushrooms Per Portion",
      "price":"£1.35"
    },
    {
      "item":"Bread and Butter Per Slice",
      "price":"£0.35"
    },
    {
      "item":"na",
      "price":""
    },
    {
      "item":"Ham, Cheese or Egg Salad",
      "price":"£5.95"
    },
    {
      "item":"Roast Chicken Salad",
      "price":"£6.80"
    },
    {
      "item":"Roast Beef Salad",
      "price":"£6.80"
    },
    {
      "item":"Prawn Salad",
      "price":"£7.40"
    }
  ]
}